…
Further filter by `start_game` and `exit_game`?

``` r
joined %>%
    filter(start_game == exit_game)
```

    ## # A tibble: 19,257 × 18
    ##    user_id    start_time final_play total_seconds_played new_to_std total_events
    ##    <chr>      <chr>      <chr>                     <int>      <int>        <int>
    ##  1 0001c8a3-… 2022-02-1… 2022-03-1…                14092          1          805
    ##  2 00022ff7-… 2022-02-1… 2022-02-2…                18170          0         1943
    ##  3 000b1d80-… 2022-02-1… 2022-02-1…                 4116          0           36
    ##  4 000f6240-… 2022-02-0… 2022-05-2…                26300          0         2779
    ##  5 00137bbb-… 2022-02-1… 2022-02-1…                19372          1          178
    ##  6 002046d5-… 2022-02-1… 2022-04-1…                10502          0          958
    ##  7 0024335e-… 2022-02-1… 2022-05-2…                22522          0          828
    ##  8 00301c6f-… 2022-02-2… 2022-04-2…                  207          0            8
    ##  9 00354fc7-… 2022-02-1… 2022-02-1…                12261          0          594
    ## 10 003e4ee9-… 2022-02-0… 2022-04-2…                18018          0         1853
    ## # ℹ 19,247 more rows
    ## # ℹ 12 more variables: start_game <int>, exit_game <int>,
    ## #   decision_events <int>, newlaw_events <int>, stress_events <int>,
    ## #   customization_events <int>, lifestyle_events <int>, help_events <int>,
    ## #   suggestion_events <int>, multiplayer_sessions <int>,
    ## #   tutorial_finished <int>, total_dlc_events <int>
…
